{
  "project_info": {
    "project_number": "749025525734",
    "firebase_url": "https://chatapplication-7aa9f.firebaseio.com",
    "project_id": "chatapplication-7aa9f",
    "storage_bucket": "chatapplication-7aa9f.appspot.com"
  },
  "client": [
    {
      "client_info": {
        "mobilesdk_app_id": "1:749025525734:android:48e6a791935040bf89e027",
        "android_client_info": {
          "package_name": "com.imgupload"
        }
      },
      "oauth_client": [
        {
          "client_id": "749025525734-nlf6n6vrms07ibdrunkbd5gt4nfg7vsr.apps.googleusercontent.com",
          "client_type": 3
        }
      ],
      "api_key": [
        {
          "current_key": "AIzaSyCe6p_qs_HahSDmydO3BDMPG1t9a8H1vKU"
        }
      ],
      "services": {
        "appinvite_service": {
          "other_platform_oauth_client": [
            {
              "client_id": "749025525734-nlf6n6vrms07ibdrunkbd5gt4nfg7vsr.apps.googleusercontent.com",
              "client_type": 3
            }
          ]
        }
      }
    }
  ],
  "configuration_version": "1"
}